Data607: Sentiment Analysis
…
Get sentiments datasets

This code block will get the sentiments datasets for AFINN, Bing et al., and NRC.

# get sentiments for afinn, bing and nrc

get_sentiments("afinn")

# A tibble: 2,477 × 2
   word       value
   <chr>      <dbl>
 1 abandon       -2
 2 abandoned     -2
 3 abandons      -2
 4 abducted      -2
 5 abduction     -2
 6 abductions    -2
 7 abhor         -3
 8 abhorred      -3
 9 abhorrent     -3
10 abhors        -3
# ℹ 2,467 more rows

get_sentiments("bing")

# A tibble: 6,786 × 2
   word        sentiment
   <chr>       <chr>    
 1 2-faces     negative 
 2 abnormal    negative 
 3 abolish     negative 
 4 abominable  negative 
 5 abominably  negative 
 6 abominate   negative 
 7 abomination negative 
 8 abort       negative 
 9 aborted     negative 
10 aborts      negative 
# ℹ 6,776 more rows

get_sentiments("nrc")

# A tibble: 13,872 × 2
   word        sentiment
   <chr>       <chr>    
 1 abacus      trust    
 2 abandon     fear     
 3 abandon     negative 
 4 abandon     sadness  
 5 abandoned   anger    
 6 abandoned   fear     
 7 abandoned   negative 
 8 abandoned   sadness  
 9 abandonment anger    
10 abandonment fear     
# ℹ 13,862 more rows
…
# sentiment analysis with inner join

nrc_joy <- get_sentiments("nrc") %>%
  filter(sentiment == "joy")

tidy_books %>%
  filter(book == "Emma") %>%
  inner_join(nrc_joy) %>%
  count(word, sort = TRUE)

Joining with `by = join_by(word)`

# A tibble: 301 × 2
   word          n
   <chr>     <int>
 1 good        359
 2 friend      166
 3 hope        143
 4 happy       125
 5 love        117
 6 deal         92
 7 found        92
 8 present      89
 9 kind         82
10 happiness    76
# ℹ 291 more rows
…
Comparing the three sentiment dictionaries

This code block will compare the three sentiment dictionaries AFINN, Bing et al., and NRC.

# Filter book Pride and Prejudice

pride_prejudice <- tidy_books %>%
  filter(book == "Pride & Prejudice")

pride_prejudice

# A tibble: 122,204 × 4
   book              linenumber chapter word     
   <fct>                  <int>   <int> <chr>    
 1 Pride & Prejudice          1       0 pride    
 2 Pride & Prejudice          1       0 and      
 3 Pride & Prejudice          1       0 prejudice
 4 Pride & Prejudice          3       0 by       
 5 Pride & Prejudice          3       0 jane     
 6 Pride & Prejudice          3       0 austen   
 7 Pride & Prejudice          7       1 chapter  
 8 Pride & Prejudice          7       1 1        
 9 Pride & Prejudice         10       1 it       
10 Pride & Prejudice         10       1 is       
# ℹ 122,194 more rows
…
Joining with `by = join_by(word)`

Warning in inner_join(., get_sentiments("bing")): Detected an unexpected many-to-many relationship between `x` and `y`.
ℹ Row 435434 of `x` matches multiple rows in `y`.
ℹ Row 5051 of `y` matches multiple rows in `x`.
ℹ If a many-to-many relationship is expected, set `relationship =
  "many-to-many"` to silence this warning.

bing_word_counts

# A tibble: 2,585 × 3
   word     sentiment     n
   <chr>    <chr>     <int>
 1 miss     negative   1855
 2 well     positive   1523
 3 good     positive   1380
 4 great    positive    981
 5 like     positive    725
 6 better   positive    639
 7 enough   positive    613
 8 happy    positive    534
 9 love     positive    495
10 pleasure positive    462
# ℹ 2,575 more rows
…
# stop words

custom_stop_words <- bind_rows(tibble(word = c("miss"),  
                                      lexicon = c("custom")), 
                               stop_words)

custom_stop_words

# A tibble: 1,150 × 2
   word        lexicon
   <chr>       <chr>  
 1 miss        custom 
 2 a           SMART  
 3 a's         SMART  
 4 able        SMART  
 5 about       SMART  
 6 above       SMART  
 7 according   SMART  
 8 accordingly SMART  
 9 across      SMART  
10 actually    SMART  
# ℹ 1,140 more rows
…
for (i in seq_along(hpbooks)) {
  clean <- tibble(chapter = seq_along(books[[i]]),
                  text = books[[i]]) %>%
    unnest_tokens(word, text) %>%
    mutate(book = hpbooks[i]) %>%
    select(book, everything())
  
  series <- rbind(series, clean)
}

series$book <- factor(series$book, levels = rev(hpbooks))

series

# A tibble: 1,089,427 × 3
   book                chapter word   
   <fct>                 <int> <chr>  
 1 Philosopher's Stone       1 the    
 2 Philosopher's Stone       1 boy    
 3 Philosopher's Stone       1 who    
 4 Philosopher's Stone       1 lived  
 5 Philosopher's Stone       1 mr     
 6 Philosopher's Stone       1 and    
 7 Philosopher's Stone       1 mrs    
 8 Philosopher's Stone       1 dursley
 9 Philosopher's Stone       1 of     
10 Philosopher's Stone       1 number 
# ℹ 1,089,417 more rows
…
Joining with `by = join_by(word)`

Warning in inner_join(., get_sentiments("bing")): Detected an unexpected many-to-many relationship between `x` and `y`.
ℹ Row 41435 of `x` matches multiple rows in `y`.
ℹ Row 2698 of `y` matches multiple rows in `x`.
ℹ If a many-to-many relationship is expected, set `relationship =
  "many-to-many"` to silence this warning.

bing_word_counts

# A tibble: 3,313 × 3
   word   sentiment     n
   <chr>  <chr>     <int>
 1 like   positive   2416
 2 well   positive   1969
 3 right  positive   1643
 4 good   positive   1065
 5 dark   negative   1034
 6 great  positive    877
 7 death  negative    757
 8 magic  positive    606
 9 better positive    533
10 enough positive    509
# ℹ 3,303 more rows
…
Stopwords

We will now create stop words for the Harry Potter series. Since there is one negative word that should not be there, fudge, we will add it to the custom stop words.

custom_stop_words <- bind_rows(tibble(word = c("fudge"),  
                                      lexicon = c("custom")), 
                               stop_words)

custom_stop_words

# A tibble: 1,150 × 2
   word        lexicon
   <chr>       <chr>  
 1 fudge       custom 
 2 a           SMART  
 3 a's         SMART  
 4 able        SMART  
 5 about       SMART  
 6 above       SMART  
 7 according   SMART  
 8 accordingly SMART  
 9 across      SMART  
10 actually    SMART  
# ℹ 1,140 more rows
…
for(i in seq_along(opbook)) {
  cleand <- tibble(chapter = seq_along(opbooks[[i]]),
                  text = opbooks[[i]]) %>%
    unnest_tokens(word, text) %>%
    mutate(book = opbook[i]) %>%
    select(book, everything())
  
  series <- rbind(series, cleand)
}

series$book <- factor(series$book, levels = rev(opbook))

series

# A tibble: 258,789 × 3
   book                 chapter word    
   <fct>                  <int> <chr>   
 1 Order of the Phoenix       1 dudley  
 2 Order of the Phoenix       1 demented
 3 Order of the Phoenix       1 the     
 4 Order of the Phoenix       1 hottest 
 5 Order of the Phoenix       1 day     
 6 Order of the Phoenix       1 of      
 7 Order of the Phoenix       1 the     
 8 Order of the Phoenix       1 summer  
 9 Order of the Phoenix       1 so      
10 Order of the Phoenix       1 far     
# ℹ 258,779 more rows
…
Joining with `by = join_by(word)`

Warning in inner_join(., get_sentiments("bing")): Detected an unexpected many-to-many relationship between `x` and `y`.
ℹ Row 15507 of `x` matches multiple rows in `y`.
ℹ Row 3905 of `y` matches multiple rows in `x`.
ℹ If a many-to-many relationship is expected, set `relationship =
  "many-to-many"` to silence this warning.

bing_word_counts

# A tibble: 2,081 × 3
   word   sentiment     n
   <chr>  <chr>     <int>
 1 well   positive    646
 2 like   positive    545
 3 right  positive    432
 4 good   positive    253
 5 dark   negative    225
 6 great  positive    195
 7 fudge  negative    162
 8 death  negative    161
 9 magic  positive    157
10 enough positive    130
# ℹ 2,071 more rows
…
Stopwords

We will now create stop words for the Harry Potter book The Order of the Phoenix. Since there is one negative word that should not be there, fudge, we will add it to the custom stop words.

custom_stop_words <- bind_rows(tibble(word = c("fudge"),  
                                      lexicon = c("custom")), 
                               stop_words)

custom_stop_words

# A tibble: 1,150 × 2
   word        lexicon
   <chr>       <chr>  
 1 fudge       custom 
 2 a           SMART  
 3 a's         SMART  
 4 able        SMART  
 5 about       SMART  
 6 above       SMART  
 7 according   SMART  
 8 accordingly SMART  
 9 across      SMART  
10 actually    SMART  
# ℹ 1,140 more rows
…
Loughran Lexicon Sentiment Analysis

This code block will perform sentiment analysis using the Loughran lexicon.

loughran <- get_sentiments("loughran")

loughran

# A tibble: 3,805 × 2
   word         sentiment
   <chr>        <chr>    
 1 abandon      negative 
 2 abandoned    negative 
 3 abandoning   negative 
 4 abandonment  negative 
 5 abandonments negative 
 6 abandons     negative 
 7 abdicated    negative 
 8 abdicates    negative 
 9 abdicating   negative 
10 abdication   negative 
# ℹ 3,795 more rows
…
